{
  "pickups": [
    {
        "_id": "5a00e9201d9f0a6c14a1276b",
        "createdAt": "2017-11-06T22:58:40.716Z",
        "cost": 25000,
        "packages": [
          {
            "name": "Pack1"
          }
        ],
        "assignation": {
          "to": {
              "firstname": "Agent",
              "lastname": "Test"
          },
          "_id": "5a1db5b7e0bd662118957ad2"
        },
        "isFree": false,
        "state": {
            "name": "ASSIGNED"
        }
    }
  ]
}